﻿{
  "LightSettings": {
    "LightDirection": {
      "X": 0.0,
      "Y": -1.0,
      "Z": 1.0,
      "W": 1.0
    },
    "LightColor": {
      "R": 1.0,
      "G": 1.0,
      "B": 1.0,
      "A": 1.0
    }
  },
  "Meshes": [
    {
      "Name": "16SpecularPower",
      "Model": "Assets/Models/sphere.obj",
      "Material": "Assets/Materials/Lighting/BlinnPhong/blinnphong16.mat",
      "Position": {
        "X": -3.0,
        "Y": 0.0,
        "Z": 0.0
      },
      "Rotation": {
        "X": 0.0,
        "Y": 1.0,
        "Z": 0.0,
        "W": 0.0
      },
      "Scale": {
        "X": 1.0,
        "Y": 1.0,
        "Z": 1.0
      }
    },
    {
      "Name": "32SpecularPower",
      "Model": "Assets/Models/sphere.obj",
      "Material": "Assets/Materials/Lighting/BlinnPhong/blinnphong32.mat",
      "Position": {
        "X": -1.5,
        "Y": 0.0,
        "Z": 0.0
      },
      "Rotation": {
        "X": 0.0,
        "Y": 1.0,
        "Z": 0.0,
        "W": 0.0
      },
      "Scale": {
        "X": 1.0,
        "Y": 1.0,
        "Z": 1.0
      }
    },
    {
      "Name": "64SpecularPower",
      "Model": "Assets/Models/sphere.obj",
      "Material": "Assets/Materials/Lighting/BlinnPhong/blinnphong64.mat",
      "Position": {
        "X": 0.0,
        "Y": 0.0,
        "Z": 0.0
      },
      "Rotation": {
        "X": 0.0,
        "Y": 1.0,
        "Z": 0.0,
        "W": 0.0
      },
      "Scale": {
        "X": 1.0,
        "Y": 1.0,
        "Z": 1.0
      }
    },
    {
      "Name": "128SpecularPower",
      "Model": "Assets/Models/sphere.obj",
      "Material": "Assets/Materials/Lighting/BlinnPhong/blinnphong128.mat",
      "Position": {
        "X": 1.5,
        "Y": 0.0,
        "Z": 0.0
      },
      "Rotation": {
        "X": 0.0,
        "Y": 1.0,
        "Z": 0.0,
        "W": 0.0
      },
      "Scale": {
        "X": 1.0,
        "Y": 1.0,
        "Z": 1.0
      }
    },
    {
      "Name": "256SpecularPower",
      "Model": "Assets/Models/sphere.obj",
      "Material": "Assets/Materials/Lighting/BlinnPhong/blinnphong256.mat",
      "Position": {
        "X": 3.0,
        "Y": 0.0,
        "Z": 0.0
      },
      "Rotation": {
        "X": 0.0,
        "Y": 1.0,
        "Z": 0.0,
        "W": 0.0
      },
      "Scale": {
        "X": 1.0,
        "Y": 1.0,
        "Z": 1.0
      }
    }
  ],
  "CameraPosition": {
    "X": 0.0,
    "Y": 0.0,
    "Z": -6.0
  },
  "CameraLookAt": {
    "X": 0.0,
    "Y": 0.0,
    "Z": 0.0
  },
  "CameraUp": {
        "X": 0.0,
        "Y": 1.0,
        "Z": 0.0
   }
}