﻿{
  "LightSettings": {
    "LightDirection": {
      "X": -1.0,
      "Y": -1.0,
      "Z": 1.0,
      "W": 1.0
    },
    "LightColor": {
      "R": 1.0,
      "G": 1.0,
      "B": 1.0,
      "A": 1.0
    }
  },
  "Meshes": [
    {
      "Name": "FlatShaderBall",
      "Model": "Assets/Models/sphere.obj",
      "Material": "Assets/Materials/Lighting/lambert.mat",
      "Position": {
        "X": 0.0,
        "Y": 0.0,
        "Z": 0.0
      },
      "Rotation": {
        "X": 0.0,
        "Y": 1.0,
        "Z": 0.0,
        "W": 0.0
      },
      "Scale": {
        "X": 1.0,
        "Y": 1.0,
        "Z": 1.0
      }
    }
  ],
  "CameraPosition": {
    "X": 0.0,
    "Y": 0.0,
    "Z": -3.0
  },
  "CameraLookAt": {
    "X": 0.0,
    "Y": 0.0,
    "Z": 0.0
  },
  "CameraUp": {
        "X": 0.0,
        "Y": 1.0,
        "Z": 0.0
   }
}