{
  "MaterialType": "Phong",
  "MaterialHeader": {
    "PixelShader": "Assets/Shaders/Phong/phongpixel.hlsl",
    "VertexShader": "Assets/Shaders/Phong/phongvertex.hlsl",
    "TextureSamplerPairs": [
      {
        "SamplerState": "Assets/SamplerStates/wrapminmagmiplinear.sampler",
        "Texture": "Assets/Textures/mitsuba-icon.tex"
      }
    ],
    "RasterizerState": "Assets/RasterizerStates/default.raster",
    "DepthStencilState": "Assets/DepthStencilStates/default.depsten"
  },
  "Constants": {
    "DiffuseColor": {
      "R": 0.0,
      "G": 0.0,
      "B": 1.0,
      "A": 1.0
    },
    "SpecularColor": {
      "R": 1.0,
      "G": 1.0,
      "B": 1.0,
      "A": 1.0
    },
    "SpecularPower": 32.0
  }
}
