{
  "MaterialType": "CookTorrance",
  "MaterialHeader": {
    "PixelShader": "Assets/Shaders/CookTorrance/cooktorrancegaussianpixel.hlsl",
    "VertexShader": "Assets/Shaders/CookTorrance/cooktorrancevertex.hlsl",
    "TextureSamplerPairs": [
      {
        "SamplerState": "Assets/SamplerStates/wrapminmagmiplinear.sampler",
        "Texture": "Assets/Textures/mitsuba-icon.tex"
      }
    ],
    "RasterizerState": "Assets/RasterizerStates/default.raster",
    "DepthStencilState": "Assets/DepthStencilStates/default.depsten"
   },
  "Constants": {
    "DiffuseColor": {
      "R": 1.0,
      "G": 0.0,
      "B": 0.0,
      "A": 1.0
    },
    "SpecularColor": {
      "R": 1.0,
      "G": 1.0,
      "B": 1.0,
      "A": 1.0
    },
    "Metallic": 1.0,
    "Roughness": 0.5
  }
}